Sample	Readset	Antibody	Time	FASTQ1	Library Name	RunType	Adapter1	Quality Offset	Number of Reads	Number of Bases	Average Quality 	% Duplicate
MED1_30_1	HI.5127.004.IDT_i7_78---IDT_i5_78.MCF7_ChIP_MED1_NA_HS_30min_Rep1	MED1	30	HI.5127.004.IDT_i7_78---IDT_i5_78.MCF7_ChIP_MED1_NA_HS_30min_Rep1_R1.fastq.gz	MCF7_ChIP_MED1_NA_HS_30min_Rep1	SINGLE_END	AGATCGGAAGAGCACACGTCTGAACTCCAGTCAC	33	18,761,327	938,066,350	38	15.274
MED1_20_1	HI.5127.004.IDT_i7_66---IDT_i5_66.MCF7_ChIP_MED1_NA_HS_20min_Rep1	MED1	20	HI.5127.004.IDT_i7_66---IDT_i5_66.MCF7_ChIP_MED1_NA_HS_20min_Rep1_R1.fastq.gz	MCF7_ChIP_MED1_NA_HS_20min_Rep1	SINGLE_END	AGATCGGAAGAGCACACGTCTGAACTCCAGTCAC	33	21,762,856	1,088,142,800	39	27.466
MED1_10_1	HI.5127.004.IDT_i7_54---IDT_i5_54.MCF7_ChIP_MED1_NA_HS_10min_Rep1	MED1	10	HI.5127.004.IDT_i7_54---IDT_i5_54.MCF7_ChIP_MED1_NA_HS_10min_Rep1_R1.fastq.gz	MCF7_ChIP_MED1_NA_HS_10min_Rep1	SINGLE_END	AGATCGGAAGAGCACACGTCTGAACTCCAGTCAC	33	20,021,409	1,001,070,450	38	18.444
MED1_0_1	HI.5127.004.IDT_i7_42---IDT_i5_42.MCF7_ChIP_MED1_NA_CTRL_Rep1	MED1	0	HI.5127.004.IDT_i7_42---IDT_i5_42.MCF7_ChIP_MED1_NA_CTRL_Rep1_R1.fastq.gz	MCF7_ChIP_MED1_NA_CTRL_Rep1	SINGLE_END	AGATCGGAAGAGCACACGTCTGAACTCCAGTCAC	33	20,127,907	1,006,395,350	39	16.079
HSF1_30_1	HI.5127.004.IDT_i7_30---IDT_i5_30.MCF7_ChIP_HSF1_NA_HS_30min_Rep1	HSF1	30	HI.5127.004.IDT_i7_30---IDT_i5_30.MCF7_ChIP_HSF1_NA_HS_30min_Rep1_R1.fastq.gz	MCF7_ChIP_HSF1_NA_HS_30min_Rep1	SINGLE_END	AGATCGGAAGAGCACACGTCTGAACTCCAGTCAC	33	22,527,238	1,126,361,900	39	18.172
HSF1_20_1	HI.5127.004.IDT_i7_18---IDT_i5_18.MCF7_ChIP_HSF1_NA_HS_20min_Rep1	HSF1	20	HI.5127.004.IDT_i7_18---IDT_i5_18.MCF7_ChIP_HSF1_NA_HS_20min_Rep1_R1.fastq.gz	MCF7_ChIP_HSF1_NA_HS_20min_Rep1	SINGLE_END	AGATCGGAAGAGCACACGTCTGAACTCCAGTCAC	33	13,114,721	655,736,050	39	24.444
WCE_20_1	HI.5127.004.IDT_i7_11---IDT_i5_11.MCF7_ChIP_WCE_NA_HS_20min_Rep1	WCE	20	HI.5127.004.IDT_i7_11---IDT_i5_11.MCF7_ChIP_WCE_NA_HS_20min_Rep1_R1.fastq.gz	MCF7_ChIP_WCE_NA_HS_20min_Rep1	SINGLE_END	AGATCGGAAGAGCACACGTCTGAACTCCAGTCAC	33	18,910,472	945,523,600	39	21.312
HSF1_10_1	HI.5127.004.IDT_i7_10---IDT_i5_10.MCF7_ChIP_HSF1_NA_HS_10min_Rep1	HSF1	10	HI.5127.004.IDT_i7_10---IDT_i5_10.MCF7_ChIP_HSF1_NA_HS_10min_Rep1_R1.fastq.gz	MCF7_ChIP_HSF1_NA_HS_10min_Rep1	SINGLE_END	AGATCGGAAGAGCACACGTCTGAACTCCAGTCAC	33	16,435,595	821,779,750	39	31.745
HSF1_0_1	HI.5127.004.IDT_i7_89---IDT_i5_89.MCF7_ChIP_HSF1_NA_CTRL_Rep1	HSF1	0	HI.5127.004.IDT_i7_89---IDT_i5_89.MCF7_ChIP_HSF1_NA_CTRL_Rep1_R1.fastq.gz	MCF7_ChIP_HSF1_NA_CTRL_Rep1	SINGLE_END	AGATCGGAAGAGCACACGTCTGAACTCCAGTCAC	33	18,333,193	916,659,650	38	16.047
WCE_30_1	HI.5127.004.IDT_i7_77---IDT_i5_77.MCF7_ChIP_WCE_NA_HS_30min_Rep1	WCE	30	HI.5127.004.IDT_i7_77---IDT_i5_77.MCF7_ChIP_WCE_NA_HS_30min_Rep1_R1.fastq.gz	MCF7_ChIP_WCE_NA_HS_30min_Rep1	SINGLE_END	AGATCGGAAGAGCACACGTCTGAACTCCAGTCAC	33	21,070,600	1,053,530,000	38	16.291
WCE_10_1	HI.5127.004.IDT_i7_53---IDT_i5_53.MCF7_ChIP_WCE_NA_HS_10min_Rep1	WCE	10	HI.5127.004.IDT_i7_53---IDT_i5_53.MCF7_ChIP_WCE_NA_HS_10min_Rep1_R1.fastq.gz	MCF7_ChIP_WCE_NA_HS_10min_Rep1	SINGLE_END	AGATCGGAAGAGCACACGTCTGAACTCCAGTCAC	33	19,196,954	959,847,700	39	18.36
WCE_0_1	HI.5127.004.IDT_i7_41---IDT_i5_41.MCF7_ChIP_WCE_NA_CTRL_Rep1	WCE	0	HI.5127.004.IDT_i7_41---IDT_i5_41.MCF7_ChIP_WCE_NA_CTRL_Rep1_R1.fastq.gz	MCF7_ChIP_WCE_NA_CTRL_Rep1	SINGLE_END	AGATCGGAAGAGCACACGTCTGAACTCCAGTCAC	33	16,368,005	818,400,250	39	21.654
BRD4_30_1	HI.5127.004.IDT_i7_31---IDT_i5_31.MCF7_ChIP_BRD4_NA_HS_30min_Rep1	BRD4	30	HI.5127.004.IDT_i7_31---IDT_i5_31.MCF7_ChIP_BRD4_NA_HS_30min_Rep1_R1.fastq.gz	MCF7_ChIP_BRD4_NA_HS_30min_Rep1	SINGLE_END	AGATCGGAAGAGCACACGTCTGAACTCCAGTCAC	33	24,050,731	1,202,536,550	38	15.709
BRD4_20_1	HI.5127.004.IDT_i7_19---IDT_i5_19.MCF7_ChIP_BRD4_NA_HS_20min_Rep1	BRD4	20	HI.5127.004.IDT_i7_19---IDT_i5_19.MCF7_ChIP_BRD4_NA_HS_20min_Rep1_R1.fastq.gz	MCF7_ChIP_BRD4_NA_HS_20min_Rep1	SINGLE_END	AGATCGGAAGAGCACACGTCTGAACTCCAGTCAC	33	21,844,916	1,092,245,800	38	15.998
BRD4_10_1	HI.5127.004.IDT_i7_7---IDT_i5_7.MCF7_ChIP_BRD4_NA_HS_10min_Rep1	BRD4	10	HI.5127.004.IDT_i7_7---IDT_i5_7.MCF7_ChIP_BRD4_NA_HS_10min_Rep1_R1.fastq.gz	MCF7_ChIP_BRD4_NA_HS_10min_Rep1	SINGLE_END	AGATCGGAAGAGCACACGTCTGAACTCCAGTCAC	33	21,713,079	1,085,653,950	38	15.971
BRD4_0_1	HI.5127.004.IDT_i7_90---IDT_i5_90.MCF7_ChIP_BRD4_NA_CTRL_Rep1	BRD4	0	HI.5127.004.IDT_i7_90---IDT_i5_90.MCF7_ChIP_BRD4_NA_CTRL_Rep1_R1.fastq.gz	MCF7_ChIP_BRD4_NA_CTRL_Rep1	SINGLE_END	AGATCGGAAGAGCACACGTCTGAACTCCAGTCAC	33	19,935,185	996,759,250	38	12.92
